// Jest Snapshot v1, https://goo.gl/fbAQLP

exports[`<ItemSuggestion /> should render 1`] = `
ShallowWrapper {
  Symbol(enzyme.__root__): [Circular],
  Symbol(enzyme.__unrendered__): <ItemSuggestion
    onSelectItem={
      [MockFunction] {
        "calls": Array [
          Array [
            Object {
              "productId": "AF4586",
              "productName": "iPhone 6",
            },
          ],
        ],
        "results": Array [
          Object {
            "isThrow": false,
            "value": undefined,
          },
        ],
      }
    }
    suggestions={
      Array [
        Object {
          "productId": "AF4586",
          "productName": "iPhone 6",
        },
        Object {
          "productId": "B899FA",
          "productName": "Redmi Note 5",
        },
      ]
    }
  />,
  Symbol(enzyme.__renderer__): Object {
    "batchedUpdates": [Function],
    "getNode": [Function],
    "render": [Function],
    "simulateError": [Function],
    "simulateEvent": [Function],
    "unmount": [Function],
  },
  Symbol(enzyme.__node__): Object {
    "instance": null,
    "key": undefined,
    "nodeType": "host",
    "props": Object {
      "children": Array [
        <ForwardRef
          onClick={[Function]}
        >
          <span
            className="suggestion-name"
          >
            iPhone 6
          </span>
          <span
            className="suggestion-id"
          >
            AF4586
          </span>
        </ForwardRef>,
        <ForwardRef
          onClick={[Function]}
        >
          <span
            className="suggestion-name"
          >
            Redmi Note 5
          </span>
          <span
            className="suggestion-id"
          >
            B899FA
          </span>
        </ForwardRef>,
      ],
    },
    "ref": null,
    "rendered": Array [
      Object {
        "instance": null,
        "key": "AF4586",
        "nodeType": "function",
        "props": Object {
          "children": Array [
            <span
              className="suggestion-name"
            >
              iPhone 6
            </span>,
            <span
              className="suggestion-id"
            >
              AF4586
            </span>,
          ],
          "onClick": [Function],
        },
        "ref": null,
        "rendered": Array [
          Object {
            "instance": null,
            "key": undefined,
            "nodeType": "host",
            "props": Object {
              "children": "iPhone 6",
              "className": "suggestion-name",
            },
            "ref": null,
            "rendered": "iPhone 6",
            "type": "span",
          },
          Object {
            "instance": null,
            "key": undefined,
            "nodeType": "host",
            "props": Object {
              "children": "AF4586",
              "className": "suggestion-id",
            },
            "ref": null,
            "rendered": "AF4586",
            "type": "span",
          },
        ],
        "type": Object {
          "$$typeof": Symbol(react.forward_ref),
          "attrs": Array [],
          "componentStyle": ComponentStyle {
            "componentId": "ItemSuggestionStyle-sc-1qepstk-0",
            "isStatic": true,
            "rules": Array [
              "padding:5px 10px;background-color:white;border-left:1px solid #cccccc;border-right:1px solid #cccccc;border-bottom:1px solid #fd930c;cursor:pointer;font-size:14px;font-family:'Helvetica Neue',sans-serif;font-weight:500;line-height:40px;&:last-child{border-bottom:1px solid #cccccc;border-bottom-left-radius:10px;border-bottom-right-radius:10px;}.suggestion-name{color:#fd930c;font-size:16px;font-weight:700;text-transform:uppercase;",
              "@media (max-width:",
              "36",
              "em){",
              "
      font-size: 10px;
    ",
              "}",
              "}.suggestion-id{float:right;color:black;font-weight:700;",
              "@media (max-width:",
              "36",
              "em){",
              "
      font-size: 10px;
    ",
              "}",
              "}&:hover{background-color:#EEEEEE;transition:background-color 0.2s;}",
              "@media (max-width:",
              "36",
              "em){",
              "
    font-size: 10px;
  ",
              "}",
            ],
          },
          "displayName": "ItemSuggestionStyle",
          "foldedComponentIds": Array [],
          "render": [Function],
          "styledComponentId": "ItemSuggestionStyle-sc-1qepstk-0",
          "target": "div",
          "toString": [Function],
          "warnTooManyClasses": [Function],
          "withComponent": [Function],
        },
      },
      Object {
        "instance": null,
        "key": "B899FA",
        "nodeType": "function",
        "props": Object {
          "children": Array [
            <span
              className="suggestion-name"
            >
              Redmi Note 5
            </span>,
            <span
              className="suggestion-id"
            >
              B899FA
            </span>,
          ],
          "onClick": [Function],
        },
        "ref": null,
        "rendered": Array [
          Object {
            "instance": null,
            "key": undefined,
            "nodeType": "host",
            "props": Object {
              "children": "Redmi Note 5",
              "className": "suggestion-name",
            },
            "ref": null,
            "rendered": "Redmi Note 5",
            "type": "span",
          },
          Object {
            "instance": null,
            "key": undefined,
            "nodeType": "host",
            "props": Object {
              "children": "B899FA",
              "className": "suggestion-id",
            },
            "ref": null,
            "rendered": "B899FA",
            "type": "span",
          },
        ],
        "type": Object {
          "$$typeof": Symbol(react.forward_ref),
          "attrs": Array [],
          "componentStyle": ComponentStyle {
            "componentId": "ItemSuggestionStyle-sc-1qepstk-0",
            "isStatic": true,
            "rules": Array [
              "padding:5px 10px;background-color:white;border-left:1px solid #cccccc;border-right:1px solid #cccccc;border-bottom:1px solid #fd930c;cursor:pointer;font-size:14px;font-family:'Helvetica Neue',sans-serif;font-weight:500;line-height:40px;&:last-child{border-bottom:1px solid #cccccc;border-bottom-left-radius:10px;border-bottom-right-radius:10px;}.suggestion-name{color:#fd930c;font-size:16px;font-weight:700;text-transform:uppercase;",
              "@media (max-width:",
              "36",
              "em){",
              "
      font-size: 10px;
    ",
              "}",
              "}.suggestion-id{float:right;color:black;font-weight:700;",
              "@media (max-width:",
              "36",
              "em){",
              "
      font-size: 10px;
    ",
              "}",
              "}&:hover{background-color:#EEEEEE;transition:background-color 0.2s;}",
              "@media (max-width:",
              "36",
              "em){",
              "
    font-size: 10px;
  ",
              "}",
            ],
          },
          "displayName": "ItemSuggestionStyle",
          "foldedComponentIds": Array [],
          "render": [Function],
          "styledComponentId": "ItemSuggestionStyle-sc-1qepstk-0",
          "target": "div",
          "toString": [Function],
          "warnTooManyClasses": [Function],
          "withComponent": [Function],
        },
      },
    ],
    "type": "div",
  },
  Symbol(enzyme.__nodes__): Array [
    Object {
      "instance": null,
      "key": undefined,
      "nodeType": "host",
      "props": Object {
        "children": Array [
          <ForwardRef
            onClick={[Function]}
          >
            <span
              className="suggestion-name"
            >
              iPhone 6
            </span>
            <span
              className="suggestion-id"
            >
              AF4586
            </span>
          </ForwardRef>,
          <ForwardRef
            onClick={[Function]}
          >
            <span
              className="suggestion-name"
            >
              Redmi Note 5
            </span>
            <span
              className="suggestion-id"
            >
              B899FA
            </span>
          </ForwardRef>,
        ],
      },
      "ref": null,
      "rendered": Array [
        Object {
          "instance": null,
          "key": "AF4586",
          "nodeType": "function",
          "props": Object {
            "children": Array [
              <span
                className="suggestion-name"
              >
                iPhone 6
              </span>,
              <span
                className="suggestion-id"
              >
                AF4586
              </span>,
            ],
            "onClick": [Function],
          },
          "ref": null,
          "rendered": Array [
            Object {
              "instance": null,
              "key": undefined,
              "nodeType": "host",
              "props": Object {
                "children": "iPhone 6",
                "className": "suggestion-name",
              },
              "ref": null,
              "rendered": "iPhone 6",
              "type": "span",
            },
            Object {
              "instance": null,
              "key": undefined,
              "nodeType": "host",
              "props": Object {
                "children": "AF4586",
                "className": "suggestion-id",
              },
              "ref": null,
              "rendered": "AF4586",
              "type": "span",
            },
          ],
          "type": Object {
            "$$typeof": Symbol(react.forward_ref),
            "attrs": Array [],
            "componentStyle": ComponentStyle {
              "componentId": "ItemSuggestionStyle-sc-1qepstk-0",
              "isStatic": true,
              "rules": Array [
                "padding:5px 10px;background-color:white;border-left:1px solid #cccccc;border-right:1px solid #cccccc;border-bottom:1px solid #fd930c;cursor:pointer;font-size:14px;font-family:'Helvetica Neue',sans-serif;font-weight:500;line-height:40px;&:last-child{border-bottom:1px solid #cccccc;border-bottom-left-radius:10px;border-bottom-right-radius:10px;}.suggestion-name{color:#fd930c;font-size:16px;font-weight:700;text-transform:uppercase;",
                "@media (max-width:",
                "36",
                "em){",
                "
      font-size: 10px;
    ",
                "}",
                "}.suggestion-id{float:right;color:black;font-weight:700;",
                "@media (max-width:",
                "36",
                "em){",
                "
      font-size: 10px;
    ",
                "}",
                "}&:hover{background-color:#EEEEEE;transition:background-color 0.2s;}",
                "@media (max-width:",
                "36",
                "em){",
                "
    font-size: 10px;
  ",
                "}",
              ],
            },
            "displayName": "ItemSuggestionStyle",
            "foldedComponentIds": Array [],
            "render": [Function],
            "styledComponentId": "ItemSuggestionStyle-sc-1qepstk-0",
            "target": "div",
            "toString": [Function],
            "warnTooManyClasses": [Function],
            "withComponent": [Function],
          },
        },
        Object {
          "instance": null,
          "key": "B899FA",
          "nodeType": "function",
          "props": Object {
            "children": Array [
              <span
                className="suggestion-name"
              >
                Redmi Note 5
              </span>,
              <span
                className="suggestion-id"
              >
                B899FA
              </span>,
            ],
            "onClick": [Function],
          },
          "ref": null,
          "rendered": Array [
            Object {
              "instance": null,
              "key": undefined,
              "nodeType": "host",
              "props": Object {
                "children": "Redmi Note 5",
                "className": "suggestion-name",
              },
              "ref": null,
              "rendered": "Redmi Note 5",
              "type": "span",
            },
            Object {
              "instance": null,
              "key": undefined,
              "nodeType": "host",
              "props": Object {
                "children": "B899FA",
                "className": "suggestion-id",
              },
              "ref": null,
              "rendered": "B899FA",
              "type": "span",
            },
          ],
          "type": Object {
            "$$typeof": Symbol(react.forward_ref),
            "attrs": Array [],
            "componentStyle": ComponentStyle {
              "componentId": "ItemSuggestionStyle-sc-1qepstk-0",
              "isStatic": true,
              "rules": Array [
                "padding:5px 10px;background-color:white;border-left:1px solid #cccccc;border-right:1px solid #cccccc;border-bottom:1px solid #fd930c;cursor:pointer;font-size:14px;font-family:'Helvetica Neue',sans-serif;font-weight:500;line-height:40px;&:last-child{border-bottom:1px solid #cccccc;border-bottom-left-radius:10px;border-bottom-right-radius:10px;}.suggestion-name{color:#fd930c;font-size:16px;font-weight:700;text-transform:uppercase;",
                "@media (max-width:",
                "36",
                "em){",
                "
      font-size: 10px;
    ",
                "}",
                "}.suggestion-id{float:right;color:black;font-weight:700;",
                "@media (max-width:",
                "36",
                "em){",
                "
      font-size: 10px;
    ",
                "}",
                "}&:hover{background-color:#EEEEEE;transition:background-color 0.2s;}",
                "@media (max-width:",
                "36",
                "em){",
                "
    font-size: 10px;
  ",
                "}",
              ],
            },
            "displayName": "ItemSuggestionStyle",
            "foldedComponentIds": Array [],
            "render": [Function],
            "styledComponentId": "ItemSuggestionStyle-sc-1qepstk-0",
            "target": "div",
            "toString": [Function],
            "warnTooManyClasses": [Function],
            "withComponent": [Function],
          },
        },
      ],
      "type": "div",
    },
  ],
  Symbol(enzyme.__options__): Object {
    "adapter": ReactSixteenAdapter {
      "options": Object {
        "enableComponentDidUpdateOnSetState": true,
        "lifecycles": Object {
          "componentDidUpdate": Object {
            "onSetState": true,
          },
          "getDerivedStateFromProps": true,
          "getSnapshotBeforeUpdate": true,
          "setState": Object {
            "skipsComponentDidUpdateOnNullish": true,
          },
        },
      },
    },
  },
}
`;
