// Jest Snapshot v1, https://goo.gl/fbAQLP

exports[`<Search/> when item is not selected should filter items when searching 1`] = `
ShallowWrapper {
  Symbol(enzyme.__root__): [Circular],
  Symbol(enzyme.__unrendered__): <Search
    deselectItem={[MockFunction]}
    isItemSelected={false}
    items={
      Array [
        Object {
          "productId": "F21B94",
          "productName": "iPhone 6",
        },
        Object {
          "productId": "F21F99",
          "productName": "Xiaomi Light",
        },
      ]
    }
    onSelectItem={[MockFunction]}
  />,
  Symbol(enzyme.__renderer__): Object {
    "batchedUpdates": [Function],
    "getNode": [Function],
    "render": [Function],
    "simulateError": [Function],
    "simulateEvent": [Function],
    "unmount": [Function],
  },
  Symbol(enzyme.__node__): Object {
    "instance": null,
    "key": undefined,
    "nodeType": "function",
    "props": Object {
      "children": <div>
        <LabeledInput
          id="search"
          name="search"
          onChange={[Function]}
          placeholder=""
          type="text"
          value="F21"
        />
        <ItemSuggestion
          onSelectItem={[Function]}
          suggestions={
            Array [
              Object {
                "productId": "F21B94",
                "productName": "iPhone 6",
              },
              Object {
                "productId": "F21F99",
                "productName": "Xiaomi Light",
              },
            ]
          }
        />
      </div>,
      "primary": false,
    },
    "ref": null,
    "rendered": Object {
      "instance": null,
      "key": undefined,
      "nodeType": "host",
      "props": Object {
        "children": Array [
          <LabeledInput
            id="search"
            name="search"
            onChange={[Function]}
            placeholder=""
            type="text"
            value="F21"
          />,
          <ItemSuggestion
            onSelectItem={[Function]}
            suggestions={
              Array [
                Object {
                  "productId": "F21B94",
                  "productName": "iPhone 6",
                },
                Object {
                  "productId": "F21F99",
                  "productName": "Xiaomi Light",
                },
              ]
            }
          />,
          null,
        ],
      },
      "ref": null,
      "rendered": Array [
        Object {
          "instance": null,
          "key": undefined,
          "nodeType": "function",
          "props": Object {
            "id": "search",
            "name": "search",
            "onChange": [Function],
            "placeholder": "",
            "type": "text",
            "value": "F21",
          },
          "ref": null,
          "rendered": null,
          "type": [Function],
        },
        Object {
          "instance": null,
          "key": undefined,
          "nodeType": "function",
          "props": Object {
            "onSelectItem": [Function],
            "suggestions": Array [
              Object {
                "productId": "F21B94",
                "productName": "iPhone 6",
              },
              Object {
                "productId": "F21F99",
                "productName": "Xiaomi Light",
              },
            ],
          },
          "ref": null,
          "rendered": null,
          "type": [Function],
        },
        null,
      ],
      "type": "div",
    },
    "type": Object {
      "$$typeof": Symbol(react.forward_ref),
      "attrs": Array [],
      "componentStyle": ComponentStyle {
        "componentId": "SearchStyles-akmr93-0",
        "isStatic": false,
        "rules": Array [
          "width:100%;display:block;input{width:100%;height:40px;display:block;padding:10px;border:1px solid #cccccc;border-bottom:",
          [Function],
          ";border-radius:10px;border-bottom-left-radius:",
          [Function],
          ";border-bottom-right-radius:",
          [Function],
          ";color:#000000;font-size:16px;font-family:'Helvetica Neue',sans-serif;font-weight:500;line-height:22px;outline:none;&:focus{outline:none;}",
          "@media (max-width:",
          "64",
          "em){",
          "
      font-size: 14px;
    ",
          "}",
          " ",
          "@media (max-width:",
          "36",
          "em){",
          "
      font-size: 10px;
    ",
          "}",
          "}label{display:block;color:#999999;font-size:14px;font-family:'Helvetica Neue',sans-serif;font-weight:500;line-height:22px;text-transform:uppercase;",
          "@media (max-width:",
          "64",
          "em){",
          "
      font-size: 12px;
    ",
          "}",
          " ",
          "@media (max-width:",
          "36",
          "em){",
          "
      font-size: 10px;
    ",
          "}",
          "}.search-error{color:",
          [Function],
          ";font-size:13px;}",
        ],
      },
      "displayName": "SearchStyles",
      "foldedComponentIds": Array [],
      "render": [Function],
      "styledComponentId": "SearchStyles-akmr93-0",
      "target": "div",
      "toString": [Function],
      "warnTooManyClasses": [Function],
      "withComponent": [Function],
    },
  },
  Symbol(enzyme.__nodes__): Array [
    Object {
      "instance": null,
      "key": undefined,
      "nodeType": "function",
      "props": Object {
        "children": <div>
          <LabeledInput
            id="search"
            name="search"
            onChange={[Function]}
            placeholder=""
            type="text"
            value="F21"
          />
          <ItemSuggestion
            onSelectItem={[Function]}
            suggestions={
              Array [
                Object {
                  "productId": "F21B94",
                  "productName": "iPhone 6",
                },
                Object {
                  "productId": "F21F99",
                  "productName": "Xiaomi Light",
                },
              ]
            }
          />
        </div>,
        "primary": false,
      },
      "ref": null,
      "rendered": Object {
        "instance": null,
        "key": undefined,
        "nodeType": "host",
        "props": Object {
          "children": Array [
            <LabeledInput
              id="search"
              name="search"
              onChange={[Function]}
              placeholder=""
              type="text"
              value="F21"
            />,
            <ItemSuggestion
              onSelectItem={[Function]}
              suggestions={
                Array [
                  Object {
                    "productId": "F21B94",
                    "productName": "iPhone 6",
                  },
                  Object {
                    "productId": "F21F99",
                    "productName": "Xiaomi Light",
                  },
                ]
              }
            />,
            null,
          ],
        },
        "ref": null,
        "rendered": Array [
          Object {
            "instance": null,
            "key": undefined,
            "nodeType": "function",
            "props": Object {
              "id": "search",
              "name": "search",
              "onChange": [Function],
              "placeholder": "",
              "type": "text",
              "value": "F21",
            },
            "ref": null,
            "rendered": null,
            "type": [Function],
          },
          Object {
            "instance": null,
            "key": undefined,
            "nodeType": "function",
            "props": Object {
              "onSelectItem": [Function],
              "suggestions": Array [
                Object {
                  "productId": "F21B94",
                  "productName": "iPhone 6",
                },
                Object {
                  "productId": "F21F99",
                  "productName": "Xiaomi Light",
                },
              ],
            },
            "ref": null,
            "rendered": null,
            "type": [Function],
          },
          null,
        ],
        "type": "div",
      },
      "type": Object {
        "$$typeof": Symbol(react.forward_ref),
        "attrs": Array [],
        "componentStyle": ComponentStyle {
          "componentId": "SearchStyles-akmr93-0",
          "isStatic": false,
          "rules": Array [
            "width:100%;display:block;input{width:100%;height:40px;display:block;padding:10px;border:1px solid #cccccc;border-bottom:",
            [Function],
            ";border-radius:10px;border-bottom-left-radius:",
            [Function],
            ";border-bottom-right-radius:",
            [Function],
            ";color:#000000;font-size:16px;font-family:'Helvetica Neue',sans-serif;font-weight:500;line-height:22px;outline:none;&:focus{outline:none;}",
            "@media (max-width:",
            "64",
            "em){",
            "
      font-size: 14px;
    ",
            "}",
            " ",
            "@media (max-width:",
            "36",
            "em){",
            "
      font-size: 10px;
    ",
            "}",
            "}label{display:block;color:#999999;font-size:14px;font-family:'Helvetica Neue',sans-serif;font-weight:500;line-height:22px;text-transform:uppercase;",
            "@media (max-width:",
            "64",
            "em){",
            "
      font-size: 12px;
    ",
            "}",
            " ",
            "@media (max-width:",
            "36",
            "em){",
            "
      font-size: 10px;
    ",
            "}",
            "}.search-error{color:",
            [Function],
            ";font-size:13px;}",
          ],
        },
        "displayName": "SearchStyles",
        "foldedComponentIds": Array [],
        "render": [Function],
        "styledComponentId": "SearchStyles-akmr93-0",
        "target": "div",
        "toString": [Function],
        "warnTooManyClasses": [Function],
        "withComponent": [Function],
      },
    },
  ],
  Symbol(enzyme.__options__): Object {
    "adapter": ReactSixteenAdapter {
      "options": Object {
        "enableComponentDidUpdateOnSetState": true,
        "lifecycles": Object {
          "componentDidUpdate": Object {
            "onSetState": true,
          },
          "getDerivedStateFromProps": true,
          "getSnapshotBeforeUpdate": true,
          "setState": Object {
            "skipsComponentDidUpdateOnNullish": true,
          },
        },
      },
    },
  },
}
`;

exports[`<Search/> when item is not selected should filter items when searching 2`] = `
ShallowWrapper {
  Symbol(enzyme.__root__): [Circular],
  Symbol(enzyme.__unrendered__): <Search
    deselectItem={[MockFunction]}
    isItemSelected={false}
    items={
      Array [
        Object {
          "productId": "F21B94",
          "productName": "iPhone 6",
        },
        Object {
          "productId": "F21F99",
          "productName": "Xiaomi Light",
        },
      ]
    }
    onSelectItem={[MockFunction]}
  />,
  Symbol(enzyme.__renderer__): Object {
    "batchedUpdates": [Function],
    "getNode": [Function],
    "render": [Function],
    "simulateError": [Function],
    "simulateEvent": [Function],
    "unmount": [Function],
  },
  Symbol(enzyme.__node__): Object {
    "instance": null,
    "key": undefined,
    "nodeType": "function",
    "props": Object {
      "children": <div>
        <LabeledInput
          id="search"
          name="search"
          onChange={[Function]}
          placeholder=""
          type="text"
          value="F21B"
        />
        <ItemSuggestion
          onSelectItem={[Function]}
          suggestions={
            Array [
              Object {
                "productId": "F21B94",
                "productName": "iPhone 6",
              },
            ]
          }
        />
      </div>,
      "primary": false,
    },
    "ref": null,
    "rendered": Object {
      "instance": null,
      "key": undefined,
      "nodeType": "host",
      "props": Object {
        "children": Array [
          <LabeledInput
            id="search"
            name="search"
            onChange={[Function]}
            placeholder=""
            type="text"
            value="F21B"
          />,
          <ItemSuggestion
            onSelectItem={[Function]}
            suggestions={
              Array [
                Object {
                  "productId": "F21B94",
                  "productName": "iPhone 6",
                },
              ]
            }
          />,
          null,
        ],
      },
      "ref": null,
      "rendered": Array [
        Object {
          "instance": null,
          "key": undefined,
          "nodeType": "function",
          "props": Object {
            "id": "search",
            "name": "search",
            "onChange": [Function],
            "placeholder": "",
            "type": "text",
            "value": "F21B",
          },
          "ref": null,
          "rendered": null,
          "type": [Function],
        },
        Object {
          "instance": null,
          "key": undefined,
          "nodeType": "function",
          "props": Object {
            "onSelectItem": [Function],
            "suggestions": Array [
              Object {
                "productId": "F21B94",
                "productName": "iPhone 6",
              },
            ],
          },
          "ref": null,
          "rendered": null,
          "type": [Function],
        },
        null,
      ],
      "type": "div",
    },
    "type": Object {
      "$$typeof": Symbol(react.forward_ref),
      "attrs": Array [],
      "componentStyle": ComponentStyle {
        "componentId": "SearchStyles-akmr93-0",
        "isStatic": false,
        "rules": Array [
          "width:100%;display:block;input{width:100%;height:40px;display:block;padding:10px;border:1px solid #cccccc;border-bottom:",
          [Function],
          ";border-radius:10px;border-bottom-left-radius:",
          [Function],
          ";border-bottom-right-radius:",
          [Function],
          ";color:#000000;font-size:16px;font-family:'Helvetica Neue',sans-serif;font-weight:500;line-height:22px;outline:none;&:focus{outline:none;}",
          "@media (max-width:",
          "64",
          "em){",
          "
      font-size: 14px;
    ",
          "}",
          " ",
          "@media (max-width:",
          "36",
          "em){",
          "
      font-size: 10px;
    ",
          "}",
          "}label{display:block;color:#999999;font-size:14px;font-family:'Helvetica Neue',sans-serif;font-weight:500;line-height:22px;text-transform:uppercase;",
          "@media (max-width:",
          "64",
          "em){",
          "
      font-size: 12px;
    ",
          "}",
          " ",
          "@media (max-width:",
          "36",
          "em){",
          "
      font-size: 10px;
    ",
          "}",
          "}.search-error{color:",
          [Function],
          ";font-size:13px;}",
        ],
      },
      "displayName": "SearchStyles",
      "foldedComponentIds": Array [],
      "render": [Function],
      "styledComponentId": "SearchStyles-akmr93-0",
      "target": "div",
      "toString": [Function],
      "warnTooManyClasses": [Function],
      "withComponent": [Function],
    },
  },
  Symbol(enzyme.__nodes__): Array [
    Object {
      "instance": null,
      "key": undefined,
      "nodeType": "function",
      "props": Object {
        "children": <div>
          <LabeledInput
            id="search"
            name="search"
            onChange={[Function]}
            placeholder=""
            type="text"
            value="F21B"
          />
          <ItemSuggestion
            onSelectItem={[Function]}
            suggestions={
              Array [
                Object {
                  "productId": "F21B94",
                  "productName": "iPhone 6",
                },
              ]
            }
          />
        </div>,
        "primary": false,
      },
      "ref": null,
      "rendered": Object {
        "instance": null,
        "key": undefined,
        "nodeType": "host",
        "props": Object {
          "children": Array [
            <LabeledInput
              id="search"
              name="search"
              onChange={[Function]}
              placeholder=""
              type="text"
              value="F21B"
            />,
            <ItemSuggestion
              onSelectItem={[Function]}
              suggestions={
                Array [
                  Object {
                    "productId": "F21B94",
                    "productName": "iPhone 6",
                  },
                ]
              }
            />,
            null,
          ],
        },
        "ref": null,
        "rendered": Array [
          Object {
            "instance": null,
            "key": undefined,
            "nodeType": "function",
            "props": Object {
              "id": "search",
              "name": "search",
              "onChange": [Function],
              "placeholder": "",
              "type": "text",
              "value": "F21B",
            },
            "ref": null,
            "rendered": null,
            "type": [Function],
          },
          Object {
            "instance": null,
            "key": undefined,
            "nodeType": "function",
            "props": Object {
              "onSelectItem": [Function],
              "suggestions": Array [
                Object {
                  "productId": "F21B94",
                  "productName": "iPhone 6",
                },
              ],
            },
            "ref": null,
            "rendered": null,
            "type": [Function],
          },
          null,
        ],
        "type": "div",
      },
      "type": Object {
        "$$typeof": Symbol(react.forward_ref),
        "attrs": Array [],
        "componentStyle": ComponentStyle {
          "componentId": "SearchStyles-akmr93-0",
          "isStatic": false,
          "rules": Array [
            "width:100%;display:block;input{width:100%;height:40px;display:block;padding:10px;border:1px solid #cccccc;border-bottom:",
            [Function],
            ";border-radius:10px;border-bottom-left-radius:",
            [Function],
            ";border-bottom-right-radius:",
            [Function],
            ";color:#000000;font-size:16px;font-family:'Helvetica Neue',sans-serif;font-weight:500;line-height:22px;outline:none;&:focus{outline:none;}",
            "@media (max-width:",
            "64",
            "em){",
            "
      font-size: 14px;
    ",
            "}",
            " ",
            "@media (max-width:",
            "36",
            "em){",
            "
      font-size: 10px;
    ",
            "}",
            "}label{display:block;color:#999999;font-size:14px;font-family:'Helvetica Neue',sans-serif;font-weight:500;line-height:22px;text-transform:uppercase;",
            "@media (max-width:",
            "64",
            "em){",
            "
      font-size: 12px;
    ",
            "}",
            " ",
            "@media (max-width:",
            "36",
            "em){",
            "
      font-size: 10px;
    ",
            "}",
            "}.search-error{color:",
            [Function],
            ";font-size:13px;}",
          ],
        },
        "displayName": "SearchStyles",
        "foldedComponentIds": Array [],
        "render": [Function],
        "styledComponentId": "SearchStyles-akmr93-0",
        "target": "div",
        "toString": [Function],
        "warnTooManyClasses": [Function],
        "withComponent": [Function],
      },
    },
  ],
  Symbol(enzyme.__options__): Object {
    "adapter": ReactSixteenAdapter {
      "options": Object {
        "enableComponentDidUpdateOnSetState": true,
        "lifecycles": Object {
          "componentDidUpdate": Object {
            "onSetState": true,
          },
          "getDerivedStateFromProps": true,
          "getSnapshotBeforeUpdate": true,
          "setState": Object {
            "skipsComponentDidUpdateOnNullish": true,
          },
        },
      },
    },
  },
}
`;

exports[`<Search/> when item is not selected should render 1`] = `
ShallowWrapper {
  Symbol(enzyme.__root__): [Circular],
  Symbol(enzyme.__unrendered__): <Search
    deselectItem={[MockFunction]}
    isItemSelected={false}
    items={
      Array [
        Object {
          "productId": "F21B94",
          "productName": "iPhone 6",
        },
        Object {
          "productId": "F21F99",
          "productName": "Xiaomi Light",
        },
      ]
    }
    onSelectItem={[MockFunction]}
  />,
  Symbol(enzyme.__renderer__): Object {
    "batchedUpdates": [Function],
    "getNode": [Function],
    "render": [Function],
    "simulateError": [Function],
    "simulateEvent": [Function],
    "unmount": [Function],
  },
  Symbol(enzyme.__node__): Object {
    "instance": null,
    "key": undefined,
    "nodeType": "function",
    "props": Object {
      "children": <div>
        <LabeledInput
          id="search"
          name="search"
          onChange={[Function]}
          placeholder=""
          type="text"
          value=""
        />
        <ItemSuggestion
          onSelectItem={[Function]}
          suggestions={Array []}
        />
      </div>,
      "primary": true,
    },
    "ref": null,
    "rendered": Object {
      "instance": null,
      "key": undefined,
      "nodeType": "host",
      "props": Object {
        "children": Array [
          <LabeledInput
            id="search"
            name="search"
            onChange={[Function]}
            placeholder=""
            type="text"
            value=""
          />,
          <ItemSuggestion
            onSelectItem={[Function]}
            suggestions={Array []}
          />,
          null,
        ],
      },
      "ref": null,
      "rendered": Array [
        Object {
          "instance": null,
          "key": undefined,
          "nodeType": "function",
          "props": Object {
            "id": "search",
            "name": "search",
            "onChange": [Function],
            "placeholder": "",
            "type": "text",
            "value": "",
          },
          "ref": null,
          "rendered": null,
          "type": [Function],
        },
        Object {
          "instance": null,
          "key": undefined,
          "nodeType": "function",
          "props": Object {
            "onSelectItem": [Function],
            "suggestions": Array [],
          },
          "ref": null,
          "rendered": null,
          "type": [Function],
        },
        null,
      ],
      "type": "div",
    },
    "type": Object {
      "$$typeof": Symbol(react.forward_ref),
      "attrs": Array [],
      "componentStyle": ComponentStyle {
        "componentId": "SearchStyles-akmr93-0",
        "isStatic": false,
        "rules": Array [
          "width:100%;display:block;input{width:100%;height:40px;display:block;padding:10px;border:1px solid #cccccc;border-bottom:",
          [Function],
          ";border-radius:10px;border-bottom-left-radius:",
          [Function],
          ";border-bottom-right-radius:",
          [Function],
          ";color:#000000;font-size:16px;font-family:'Helvetica Neue',sans-serif;font-weight:500;line-height:22px;outline:none;&:focus{outline:none;}",
          "@media (max-width:",
          "64",
          "em){",
          "
      font-size: 14px;
    ",
          "}",
          " ",
          "@media (max-width:",
          "36",
          "em){",
          "
      font-size: 10px;
    ",
          "}",
          "}label{display:block;color:#999999;font-size:14px;font-family:'Helvetica Neue',sans-serif;font-weight:500;line-height:22px;text-transform:uppercase;",
          "@media (max-width:",
          "64",
          "em){",
          "
      font-size: 12px;
    ",
          "}",
          " ",
          "@media (max-width:",
          "36",
          "em){",
          "
      font-size: 10px;
    ",
          "}",
          "}.search-error{color:",
          [Function],
          ";font-size:13px;}",
        ],
      },
      "displayName": "SearchStyles",
      "foldedComponentIds": Array [],
      "render": [Function],
      "styledComponentId": "SearchStyles-akmr93-0",
      "target": "div",
      "toString": [Function],
      "warnTooManyClasses": [Function],
      "withComponent": [Function],
    },
  },
  Symbol(enzyme.__nodes__): Array [
    Object {
      "instance": null,
      "key": undefined,
      "nodeType": "function",
      "props": Object {
        "children": <div>
          <LabeledInput
            id="search"
            name="search"
            onChange={[Function]}
            placeholder=""
            type="text"
            value=""
          />
          <ItemSuggestion
            onSelectItem={[Function]}
            suggestions={Array []}
          />
        </div>,
        "primary": true,
      },
      "ref": null,
      "rendered": Object {
        "instance": null,
        "key": undefined,
        "nodeType": "host",
        "props": Object {
          "children": Array [
            <LabeledInput
              id="search"
              name="search"
              onChange={[Function]}
              placeholder=""
              type="text"
              value=""
            />,
            <ItemSuggestion
              onSelectItem={[Function]}
              suggestions={Array []}
            />,
            null,
          ],
        },
        "ref": null,
        "rendered": Array [
          Object {
            "instance": null,
            "key": undefined,
            "nodeType": "function",
            "props": Object {
              "id": "search",
              "name": "search",
              "onChange": [Function],
              "placeholder": "",
              "type": "text",
              "value": "",
            },
            "ref": null,
            "rendered": null,
            "type": [Function],
          },
          Object {
            "instance": null,
            "key": undefined,
            "nodeType": "function",
            "props": Object {
              "onSelectItem": [Function],
              "suggestions": Array [],
            },
            "ref": null,
            "rendered": null,
            "type": [Function],
          },
          null,
        ],
        "type": "div",
      },
      "type": Object {
        "$$typeof": Symbol(react.forward_ref),
        "attrs": Array [],
        "componentStyle": ComponentStyle {
          "componentId": "SearchStyles-akmr93-0",
          "isStatic": false,
          "rules": Array [
            "width:100%;display:block;input{width:100%;height:40px;display:block;padding:10px;border:1px solid #cccccc;border-bottom:",
            [Function],
            ";border-radius:10px;border-bottom-left-radius:",
            [Function],
            ";border-bottom-right-radius:",
            [Function],
            ";color:#000000;font-size:16px;font-family:'Helvetica Neue',sans-serif;font-weight:500;line-height:22px;outline:none;&:focus{outline:none;}",
            "@media (max-width:",
            "64",
            "em){",
            "
      font-size: 14px;
    ",
            "}",
            " ",
            "@media (max-width:",
            "36",
            "em){",
            "
      font-size: 10px;
    ",
            "}",
            "}label{display:block;color:#999999;font-size:14px;font-family:'Helvetica Neue',sans-serif;font-weight:500;line-height:22px;text-transform:uppercase;",
            "@media (max-width:",
            "64",
            "em){",
            "
      font-size: 12px;
    ",
            "}",
            " ",
            "@media (max-width:",
            "36",
            "em){",
            "
      font-size: 10px;
    ",
            "}",
            "}.search-error{color:",
            [Function],
            ";font-size:13px;}",
          ],
        },
        "displayName": "SearchStyles",
        "foldedComponentIds": Array [],
        "render": [Function],
        "styledComponentId": "SearchStyles-akmr93-0",
        "target": "div",
        "toString": [Function],
        "warnTooManyClasses": [Function],
        "withComponent": [Function],
      },
    },
  ],
  Symbol(enzyme.__options__): Object {
    "adapter": ReactSixteenAdapter {
      "options": Object {
        "enableComponentDidUpdateOnSetState": true,
        "lifecycles": Object {
          "componentDidUpdate": Object {
            "onSetState": true,
          },
          "getDerivedStateFromProps": true,
          "getSnapshotBeforeUpdate": true,
          "setState": Object {
            "skipsComponentDidUpdateOnNullish": true,
          },
        },
      },
    },
  },
}
`;

exports[`<Search/> when item is selected should render 1`] = `
ShallowWrapper {
  Symbol(enzyme.__root__): [Circular],
  Symbol(enzyme.__unrendered__): <Search
    deselectItem={[MockFunction]}
    isItemSelected={true}
  />,
  Symbol(enzyme.__renderer__): Object {
    "batchedUpdates": [Function],
    "getNode": [Function],
    "render": [Function],
    "simulateError": [Function],
    "simulateEvent": [Function],
    "unmount": [Function],
  },
  Symbol(enzyme.__node__): Object {
    "instance": null,
    "key": undefined,
    "nodeType": "function",
    "props": Object {
      "children": <SelectedItem
        deselectItem={[MockFunction]}
        id="selectedItem"
        name="selected-item"
        productId=""
        productName=""
      />,
      "primary": true,
    },
    "ref": null,
    "rendered": Object {
      "instance": null,
      "key": undefined,
      "nodeType": "function",
      "props": Object {
        "deselectItem": [MockFunction],
        "foundItem": undefined,
        "id": "selectedItem",
        "isSerialized": undefined,
        "name": "selected-item",
        "productId": "",
        "productName": "",
      },
      "ref": null,
      "rendered": null,
      "type": [Function],
    },
    "type": Object {
      "$$typeof": Symbol(react.forward_ref),
      "attrs": Array [],
      "componentStyle": ComponentStyle {
        "componentId": "SearchStyles-akmr93-0",
        "isStatic": false,
        "rules": Array [
          "width:100%;display:block;input{width:100%;height:40px;display:block;padding:10px;border:1px solid #cccccc;border-bottom:",
          [Function],
          ";border-radius:10px;border-bottom-left-radius:",
          [Function],
          ";border-bottom-right-radius:",
          [Function],
          ";color:#000000;font-size:16px;font-family:'Helvetica Neue',sans-serif;font-weight:500;line-height:22px;outline:none;&:focus{outline:none;}",
          "@media (max-width:",
          "64",
          "em){",
          "
      font-size: 14px;
    ",
          "}",
          " ",
          "@media (max-width:",
          "36",
          "em){",
          "
      font-size: 10px;
    ",
          "}",
          "}label{display:block;color:#999999;font-size:14px;font-family:'Helvetica Neue',sans-serif;font-weight:500;line-height:22px;text-transform:uppercase;",
          "@media (max-width:",
          "64",
          "em){",
          "
      font-size: 12px;
    ",
          "}",
          " ",
          "@media (max-width:",
          "36",
          "em){",
          "
      font-size: 10px;
    ",
          "}",
          "}.search-error{color:",
          [Function],
          ";font-size:13px;}",
        ],
      },
      "displayName": "SearchStyles",
      "foldedComponentIds": Array [],
      "render": [Function],
      "styledComponentId": "SearchStyles-akmr93-0",
      "target": "div",
      "toString": [Function],
      "warnTooManyClasses": [Function],
      "withComponent": [Function],
    },
  },
  Symbol(enzyme.__nodes__): Array [
    Object {
      "instance": null,
      "key": undefined,
      "nodeType": "function",
      "props": Object {
        "children": <SelectedItem
          deselectItem={[MockFunction]}
          id="selectedItem"
          name="selected-item"
          productId=""
          productName=""
        />,
        "primary": true,
      },
      "ref": null,
      "rendered": Object {
        "instance": null,
        "key": undefined,
        "nodeType": "function",
        "props": Object {
          "deselectItem": [MockFunction],
          "foundItem": undefined,
          "id": "selectedItem",
          "isSerialized": undefined,
          "name": "selected-item",
          "productId": "",
          "productName": "",
        },
        "ref": null,
        "rendered": null,
        "type": [Function],
      },
      "type": Object {
        "$$typeof": Symbol(react.forward_ref),
        "attrs": Array [],
        "componentStyle": ComponentStyle {
          "componentId": "SearchStyles-akmr93-0",
          "isStatic": false,
          "rules": Array [
            "width:100%;display:block;input{width:100%;height:40px;display:block;padding:10px;border:1px solid #cccccc;border-bottom:",
            [Function],
            ";border-radius:10px;border-bottom-left-radius:",
            [Function],
            ";border-bottom-right-radius:",
            [Function],
            ";color:#000000;font-size:16px;font-family:'Helvetica Neue',sans-serif;font-weight:500;line-height:22px;outline:none;&:focus{outline:none;}",
            "@media (max-width:",
            "64",
            "em){",
            "
      font-size: 14px;
    ",
            "}",
            " ",
            "@media (max-width:",
            "36",
            "em){",
            "
      font-size: 10px;
    ",
            "}",
            "}label{display:block;color:#999999;font-size:14px;font-family:'Helvetica Neue',sans-serif;font-weight:500;line-height:22px;text-transform:uppercase;",
            "@media (max-width:",
            "64",
            "em){",
            "
      font-size: 12px;
    ",
            "}",
            " ",
            "@media (max-width:",
            "36",
            "em){",
            "
      font-size: 10px;
    ",
            "}",
            "}.search-error{color:",
            [Function],
            ";font-size:13px;}",
          ],
        },
        "displayName": "SearchStyles",
        "foldedComponentIds": Array [],
        "render": [Function],
        "styledComponentId": "SearchStyles-akmr93-0",
        "target": "div",
        "toString": [Function],
        "warnTooManyClasses": [Function],
        "withComponent": [Function],
      },
    },
  ],
  Symbol(enzyme.__options__): Object {
    "adapter": ReactSixteenAdapter {
      "options": Object {
        "enableComponentDidUpdateOnSetState": true,
        "lifecycles": Object {
          "componentDidUpdate": Object {
            "onSetState": true,
          },
          "getDerivedStateFromProps": true,
          "getSnapshotBeforeUpdate": true,
          "setState": Object {
            "skipsComponentDidUpdateOnNullish": true,
          },
        },
      },
    },
  },
}
`;
